[
  {
    "slug": "1password-x-password-manager",
    "license": {
      "tag": "custom",
      "shortName": "1pwd",
      "fullName": "Service Agreement for 1Password users and customers",
      "url": "https://1password.com/legal/terms-of-service/",
      "free": false
    }
  },
  {
    "slug": "adsum-notabs"
  },
  {
    "slug": "anchors-reveal"
  },
  {
    "slug": "auto-tab-discard"
  },
  {
    "slug": "bitwarden-password-manager",
    "pname": "bitwarden"
  },
  {
    "slug": "browserpass-ce",
    "pname": "browserpass"
  },
  {
    "slug": "browserpass-otp"
  },
  {
    "slug": "buster-captcha-solver"
  },
  {
    "slug": "close-other-windows"
  },
  {
    "slug": "cookie-autodelete"
  },
  {
    "slug": "dark-night-mode"
  },
  {
    "slug": "dark-scroll-for-tweetdeck"
  },
  {
    "slug": "darkreader"
  },
  {
    "slug": "decentraleyes"
  },
  {
    "slug": "disconnect"
  },
  {
    "slug": "ecosia-the-green-search",
    "pname": "ecosia"
  },
  {
    "slug": "facebook-container"
  },
  {
    "slug": "firefox-color"
  },
  {
    "slug": "foxyproxy-standard"
  },
  {
    "slug": "fraidycat"
  },
  {
    "slug": "gesturefy"
  },
  {
    "slug": "ghostery"
  },
  {
    "slug": "google-search-link-fix"
  },
  {
    "slug": "gopass-bridge"
  },
  {
    "slug": "greasemonkey"
  },
  {
    "slug": "görans-hemmasnickrade-ordli",
    "pname": "swedish-dictionary"
  },
  {
    "slug": "header-editor"
  },
  {
    "slug": "honey",
    "license": {
      "tag": "custom",
      "shortName": "honeyl",
      "fullName": "Custom License for Honey",
      "url": "https://addons.mozilla.org/en-US/firefox/addon/honey/license/",
      "free": false
    }
  },
  {
    "slug": "https-everywhere",
    "license": {
      "tag": "custom",
      "shortName": "https-everywhere-license",
      "fullName": "Multiple",
      "url": "https://addons.mozilla.org/en-US/firefox/addon/https-everywhere/license/",
      "free": true
    }
  },
  {
    "slug": "i-dont-care-about-cookies"
  },
  {
    "slug": "ipfs-companion"
  },
  {
    "slug": "keepass-helper-url-in-title",
    "pname": "keepass-helper"
  },
  {
    "slug": "keepassxc-browser"
  },
  {
    "slug": "lastpass-password-manager",
    "license": {
      "tag": "custom",
      "shortName": "unfree",
      "fullName": "Unfree",
      "url": "https://addons.mozilla.org/en-US/firefox/addon/lastpass-password-manager/license/",
      "free": false
    }
  },
  {
    "slug": "leechblock-ng"
  },
  {
    "slug": "link-cleaner"
  },
  {
    "slug": "linkhints"
  },
  {
    "slug": "multi-account-containers"
  },
  {
    "slug": "octotree"
  },
  {
    "slug": "old-reddit-redirect"
  },
  {
    "slug": "peertubeify"
  },
  {
    "slug": "plasma-integration"
  },
  {
    "slug": "privacy-badger17",
    "pname": "privacy-badger"
  },
  {
    "slug": "privacy-possum"
  },
  {
    "slug": "react-devtools"
  },
  {
    "slug": "reddit-enhancement-suite"
  },
  {
    "slug": "reddit-moderator-toolbox"
  },
  {
    "slug": "refined-github-",
    "pname": "refined-github"
  },
  {
    "slug": "save-page-we"
  },
  {
    "slug": "sidebery"
  },
  {
    "slug": "styl-us",
    "pname": "stylus"
  },
  {
    "slug": "tab-center-redux"
  },
  {
    "slug": "temporary-containers"
  },
  {
    "slug": "text-contrast-for-dark-themes"
  },
  {
    "slug": "textern"
  },
  {
    "slug": "torswitch"
  },
  {
    "slug": "transparent-standalone-image"
  },
  {
    "slug": "tridactyl-vim",
    "pname": "tridactyl",
    "license": {
      "tag": "predefined",
      "shortName": "asl20"
    }
  },
  {
    "slug": "ublock-origin"
  },
  {
    "slug": "umatrix"
  },
  {
    "slug": "vim-vixen"
  },
  {
    "slug": "vimium-ff",
    "pname": "vimium"
  },
  {
    "slug": "violentmonkey"
  },
  {
    "slug": "zoom-page-we"
  }
]
